d,D,FF,TS
128,128,0.164574,0.23603675
128,256,0.131192,0.1077295
128,512,0.0907248,0.074839025
128,1024,0.0676565,0.065359475
128,2048,0.0457166,0.0454161
128,4096,0.0328091,0.028891075
128,8192,0.023739,0.02175065
