Experiment run. n, avg. abs.error, avg. rel. error, percentage rel.error<=1
10000,0.0740133,0.0867197,0.9998
10000,0.0321987,0.0378445,1
10000,0.0469765,0.0552375,1
10000,0.0448059,0.0527739,1
Experiment run. n, avg. abs.error, avg. rel. error, percentage rel.error<=1
10000,0.0337186,0.0396782,1
10000,0.0506214,0.0595717,1
10000,0.0875556,0.102935,1
10000,0.0373696,0.0439661,1
Experiment run. n, avg. abs.error, avg. rel. error, percentage rel.error<=1
10000,0.0594622,0.0702149,1
10000,0.0546136,0.0642628,1
10000,0.0385735,0.0454137,1
10000,0.0526526,0.0619754,1
Experiment run. n, avg. abs.error, avg. rel. error, percentage rel.error<=1
10000,0.0728032,0.0856555,1
10000,0.0459412,0.0541377,1
10000,0.0413689,0.0486584,1
10000,0.0515216,0.0607256,1
Experiment run. n, avg. abs.error, avg. rel. error, percentage rel.error<=1
10000,0.0359617,0.0423064,1
10000,0.0385476,0.0454974,1
10000,0.0245324,0.02884,1
10000,0.0398083,0.0468722,1
Experiment run. n, avg. abs.error, avg. rel. error, percentage rel.error<=1
10000,0.0299701,0.0352294,1
10000,0.0338882,0.0397295,1
10000,0.0268836,0.0315616,1
10000,0.038106,0.0448412,1
Experiment run. n, avg. abs.error, avg. rel. error, percentage rel.error<=1
10000,0.031512,0.0370643,1
10000,0.0267297,0.0314081,1
10000,0.021408,0.0252096,1
10000,0.0344676,0.0405362,1
Experiment run. n, avg. abs.error, avg. rel. error, percentage rel.error<=1
10000,0.0303963,0.0356835,1
10000,0.0293192,0.0344876,1
10000,0.0351876,0.0413598,1
10000,0.0287279,0.0338403,1
Experiment run. n, avg. abs.error, avg. rel. error, percentage rel.error<=1
10000,0.0178935,0.0210255,1
10000,0.0209106,0.0245821,1
10000,0.0201191,0.0236719,1
10000,0.0249587,0.0293643,1
Experiment run. n, avg. abs.error, avg. rel. error, percentage rel.error<=1
10000,0.0205985,0.0241961,1
10000,0.0235778,0.0277235,1
10000,0.0317528,0.0372862,1
10000,0.0232991,0.0274277,1
Experiment run. n, avg. abs.error, avg. rel. error, percentage rel.error<=1
10000,0.0227924,0.0268575,1
10000,0.0211969,0.024928,1
10000,0.0252029,0.0297151,1
10000,0.0202621,0.0238773,1
Experiment run. n, avg. abs.error, avg. rel. error, percentage rel.error<=1
10000,0.0229007,0.026986,1
10000,0.0209239,0.0246059,1
10000,0.024164,0.0284744,1
10000,0.0291498,0.0343401,1
Experiment run. n, avg. abs.error, avg. rel. error, percentage rel.error<=1
10000,0.0181526,0.0213584,1
10000,0.0194805,0.0229351,1
10000,0.015698,0.0184456,1
10000,0.0203068,0.0239444,1
Experiment run. n, avg. abs.error, avg. rel. error, percentage rel.error<=1
10000,0.0185473,0.0218223,1
10000,0.0154002,0.018089,1
10000,0.0162636,0.0191068,1
10000,0.012173,0.0142967,1
Experiment run. n, avg. abs.error, avg. rel. error, percentage rel.error<=1
10000,0.0170997,0.0200863,1
10000,0.0182406,0.0214469,1
10000,0.0181188,0.0213355,1
10000,0.0167163,0.0196878,1
Experiment run. n, avg. abs.error, avg. rel. error, percentage rel.error<=1
10000,0.0158192,0.0186256,1
10000,0.0158318,0.0186199,1
10000,0.013812,0.0162696,1
10000,0.015732,0.0185124,1
Experiment run. n, avg. abs.error, avg. rel. error, percentage rel.error<=1
10000,0.0117195,0.0137845,1
10000,0.0140995,0.0165843,1
10000,0.0126702,0.0149027,1
10000,0.0120123,0.0141343,1
Experiment run. n, avg. abs.error, avg. rel. error, percentage rel.error<=1
10000,0.0120741,0.0141903,1
10000,0.0107524,0.012663,1
10000,0.0132048,0.0155359,1
10000,0.0130829,0.0153754,1
Experiment run. n, avg. abs.error, avg. rel. error, percentage rel.error<=1
10000,0.0126855,0.0149335,1
10000,0.0114184,0.0134413,1
10000,0.0102536,0.012058,1
10000,0.0106296,0.0125229,1
Experiment run. n, avg. abs.error, avg. rel. error, percentage rel.error<=1
10000,0.0133123,0.015638,1
10000,0.0113225,0.0133152,1
10000,0.010081,0.011858,1
10000,0.011243,0.0132192,1
Experiment run. n, avg. abs.error, avg. rel. error, percentage rel.error<=1
10000,0.00760273,0.00893782,1
10000,0.00838085,0.0098632,1
10000,0.00941912,0.0110982,1
10000,0.00881117,0.0103689,1
Experiment run. n, avg. abs.error, avg. rel. error, percentage rel.error<=1
10000,0.00876467,0.0103121,1
10000,0.0083676,0.00982683,1
10000,0.00736686,0.00867669,1
10000,0.00915105,0.0107607,1
Experiment run. n, avg. abs.error, avg. rel. error, percentage rel.error<=1
10000,0.00768092,0.00902978,1
10000,0.00843513,0.00991619,1
10000,0.0102464,0.0120799,1
10000,0.00865914,0.0102006,1
Experiment run. n, avg. abs.error, avg. rel. error, percentage rel.error<=1
10000,0.00984421,0.0115962,1
10000,0.00836201,0.0098499,1
10000,0.0104958,0.0123756,1
10000,0.010141,0.0119465,1
Experiment run. n, avg. abs.error, avg. rel. error, percentage rel.error<=1
10000,0.00606124,0.00713099,1
10000,0.00550167,0.00645487,1
10000,0.00579392,0.00681501,1
10000,0.00642638,0.00755858,1
Experiment run. n, avg. abs.error, avg. rel. error, percentage rel.error<=1
10000,0.0067045,0.00790012,1
10000,0.00502701,0.00591988,1
10000,0.00622019,0.00733306,1
10000,0.00566168,0.00666526,1
Experiment run. n, avg. abs.error, avg. rel. error, percentage rel.error<=1
10000,0.00715278,0.0084216,1
10000,0.00466736,0.00549849,1
10000,0.0054749,0.00643592,1
10000,0.00556373,0.0065308,1
Experiment run. n, avg. abs.error, avg. rel. error, percentage rel.error<=1
10000,0.00554569,0.00651121,1
10000,0.00637377,0.00750686,1
10000,0.00541089,0.00635938,1
10000,0.00621654,0.00731332,1
Experiment run. n, avg. abs.error, avg. rel. error, percentage rel.error<=1
10000,0.00400397,0.00471819,1
10000,0.0040395,0.00474775,1
10000,0.00389531,0.00458471,1
10000,0.00434201,0.00510183,1
Experiment run. n, avg. abs.error, avg. rel. error, percentage rel.error<=1
10000,0.00388194,0.00456434,1
10000,0.00402827,0.00473564,1
10000,0.00421626,0.00495941,1
10000,0.00410178,0.00483413,1
Experiment run. n, avg. abs.error, avg. rel. error, percentage rel.error<=1
10000,0.0037626,0.00442739,1
10000,0.00467672,0.00549718,1
10000,0.00476529,0.0056157,1
10000,0.00375187,0.00441764,1
Experiment run. n, avg. abs.error, avg. rel. error, percentage rel.error<=1
10000,0.00410641,0.00482323,1
10000,0.00452453,0.00532291,1
10000,0.00409639,0.00481931,1
10000,0.00410207,0.00483104,1
Experiment run. n, avg. abs.error, avg. rel. error, percentage rel.error<=1
10000,0.00301006,0.00354307,1
10000,0.00316649,0.00372485,1
10000,0.00297033,0.00349841,1
10000,0.00290409,0.00341375,1
Experiment run. n, avg. abs.error, avg. rel. error, percentage rel.error<=1
10000,0.0026073,0.00306936,1
10000,0.00321682,0.00378858,1
10000,0.00303496,0.00357173,1
10000,0.00291822,0.00343616,1
Experiment run. n, avg. abs.error, avg. rel. error, percentage rel.error<=1
10000,0.00259492,0.00304863,1
10000,0.00261865,0.0030861,1
10000,0.00273646,0.00321373,1
10000,0.00281001,0.00330655,1
Experiment run. n, avg. abs.error, avg. rel. error, percentage rel.error<=1
10000,0.00269546,0.00316868,1
10000,0.00287054,0.00337567,1
10000,0.0025552,0.00300364,1
10000,0.00288383,0.00339335,1
Experiment run. n, avg. abs.error, avg. rel. error, percentage rel.error<=1
10000,0.0019365,0.00227882,1
10000,0.0023416,0.00275587,1
10000,0.00230072,0.00270957,1
10000,0.00224891,0.00265326,1
Experiment run. n, avg. abs.error, avg. rel. error, percentage rel.error<=1
10000,0.00217459,0.00256178,1
10000,0.00198792,0.00234164,1
10000,0.00215077,0.00253152,1
10000,0.00189994,0.00223292,1
Experiment run. n, avg. abs.error, avg. rel. error, percentage rel.error<=1
10000,0.00200922,0.00236659,1
10000,0.00212186,0.0024968,1
10000,0.0022534,0.00265476,1
10000,0.00198287,0.00233746,1
Experiment run. n, avg. abs.error, avg. rel. error, percentage rel.error<=1
10000,0.00174554,0.00205388,1
10000,0.00256784,0.00301838,1
10000,0.00188371,0.00221682,1
10000,0.00228299,0.00268362,1
