type	D	Experiment run. n	 avg. abs.error	 avg. rel. error	 percentage rel.error<=1
FF	16	40000	1.85287	0.437636	0.99625
TS	16	40000	0.625594	0.158509	0.99985
FF	32	40000	1.76794	0.412957	0.995
TS	32	40000	0.62668	0.157964	1
FF	64	40000	1.75683	0.41049	0.9962
TS	64	40000	5.48E-016	1.36E-016	1
FF	128	40000	1.71511	0.401367	0.9977
TS	128	40000	5.36E-016	1.32E-016	1
FF	256	40000	1.76452	0.412695	0.9994
TS	256	40000	5.19E-016	1.28E-016	1
FF	512	40000	1.73956	0.406034	0.9995
TS	512	40000	5.73E-016	1.42E-016	1
FF	1024	40000	1.72783	0.402951	0.99985
TS	1024	40000	6.14E-016	1.52E-016	1
FF	2048	40000	1.75127	0.408606	1
TS	2048	40000	6.33E-016	1.57E-016	1
FF	4096	40000	1.7365	0.404953	0.99995
TS	4096	40000	6.65E-016	1.64E-016	1