transform, dimensions, repeats, avg, min, max
FastFood, 2, 100, 52.68,49,213
FWHTn, 2, 100, 31.56,31,68
FastFood, 4, 100, 61.37,60,80
FWHTn, 4, 100, 34.09,34,39
FastFood, 8, 100, 81.09,80,111
FWHTn, 8, 100, 40.63,40,46
FastFood, 16, 100, 132.2,131,146
FWHTn, 16, 100, 60.19,60,72
FastFood, 32, 100, 216.54,214,318
FWHTn, 32, 100, 94.34,88,103
FastFood, 64, 100, 393.38,392,415
FWHTn, 64, 100, 146.77,144,234
FastFood, 128, 100, 755.09,750,866
FWHTn, 128, 100, 260.62,259,273
FastFood, 256, 100, 1490.3,1480,1568
FWHTn, 256, 100, 500.36,494,639
FastFood, 512, 100, 3039.36,3019,3348
FWHTn, 512, 100, 985.18,978,1085
