<?xml version="1.0" encoding="UTF-8"?>
<svg xmlns="http://www.w3.org/2000/svg"
    xmlns:latexdraw="http://latexdraw.sourceforge.net/namespaces/latexdraw"
    version="1.1" baseProfile="full">
    <defs>
        <marker overflow="visible" orient="auto" id="arrow2-5020">
            <path
                d="M 0.0 0.0 L -4.65208345 1.661458375 L -2.7912500700000002 0.0 L -4.65208345 -1.661458375 z "
                latexdraw:arrSizeNum="2.0" fill="black"/>
        </marker>
        <marker overflow="visible" orient="auto" id="arrow2-5021">
            <path
                d="M 0.0 0.0 L -4.65208345 1.661458375 L -2.7912500700000002 0.0 L -4.65208345 -1.661458375 z "
                latexdraw:arrSizeNum="2.0" fill="black"/>
        </marker>
        <marker overflow="visible" orient="auto" id="arrow2-5022">
            <path
                d="M 0.0 0.0 L -4.65208345 1.661458375 L -2.7912500700000002 0.0 L -4.65208345 -1.661458375 z "
                latexdraw:arrSizeNum="2.0" fill="black"/>
        </marker>
        <marker overflow="visible" orient="auto" id="arrow2-5023">
            <path
                d="M 0.0 0.0 L -4.65208345 1.661458375 L -2.7912500700000002 0.0 L -4.65208345 -1.661458375 z "
                latexdraw:arrSizeNum="2.0" fill="black"/>
        </marker>
        <marker overflow="visible" orient="auto" id="arrow2-5024">
            <path
                d="M 0.0 0.0 L -4.65208345 1.661458375 L -2.7912500700000002 0.0 L -4.65208345 -1.661458375 z "
                latexdraw:arrSizeNum="2.0" fill="black"/>
        </marker>
        <marker overflow="visible" orient="auto" id="arrow2-5025">
            <path
                d="M 0.0 0.0 L -4.65208345 1.661458375 L -2.7912500700000002 0.0 L -4.65208345 -1.661458375 z "
                latexdraw:arrSizeNum="2.0" fill="black"/>
        </marker>
    </defs>
    <g>
        <g latexdraw:type="rectangle" id="id4997">
            <rect x="48.046875" y="55.92188" width="48.0"
                height="237.999995" latexdraw:borderPos="outer"
                stroke-width="2.0" stroke="black" fill="none"/>
        </g>
        <g latexdraw:type="text" id="id4998"
            font-family="Times New Roman" fill="black" font-size="18" latexdraw:x="50.617187">
            <text x="50.617187" y="81.92187499999999"><![CDATA[$x_1$]]></text>
        </g>
        <g latexdraw:type="text" id="id5000"
            font-family="Times New Roman" fill="black" font-size="18" latexdraw:x="50.617187">
            <text x="50.617187" y="121.52187849999999"><![CDATA[$x_2$]]></text>
        </g>
        <g latexdraw:type="text" id="id5002"
            font-family="Times New Roman" fill="black" font-size="18" latexdraw:x="50.617187">
            <text x="50.617187" y="161.12187749999998"><![CDATA[$x_3$]]></text>
        </g>
        <g latexdraw:type="text" id="id5004"
            font-family="Times New Roman" fill="black" font-size="18" latexdraw:x="50.617187">
            <text x="50.617187" y="240.32187499999998"><![CDATA[$x_5$]]></text>
        </g>
        <g latexdraw:type="text" id="id5006"
            font-family="Times New Roman" fill="black" font-size="18" latexdraw:x="50.617187">
            <text x="50.617187" y="200.721878"><![CDATA[$x_4$]]></text>
        </g>
        <g latexdraw:type="text" id="id5008"
            font-family="Times New Roman" fill="black" font-size="18" latexdraw:x="50.617187">
            <text x="50.617187" y="279.92188"><![CDATA[$x_6$]]></text>
        </g>
        <g latexdraw:type="rectangle" id="id5010">
            <rect x="318.046875" y="55.92188" width="117.99999999999994"
                height="157.999995" latexdraw:borderPos="outer"
                stroke-width="2.0" stroke="black" fill="none"/>
        </g>
        <g latexdraw:type="text" id="id5011"
            font-family="Times New Roman" fill="black" font-size="18" latexdraw:x="332.34376">
            <text x="332.34376" y="124.921875"><![CDATA[$x_1 + x_2$]]></text>
        </g>
        <g latexdraw:type="text" id="id5013"
            font-family="Times New Roman" fill="black" font-size="18" latexdraw:x="355.34376">
            <text x="355.34376" y="84.92187999999999"><![CDATA[$x_6$]]></text>
        </g>
        <g latexdraw:type="text" id="id5015"
            font-family="Times New Roman" fill="black" font-size="18" latexdraw:x="352.34376">
            <text x="352.34376" y="164.9218775"><![CDATA[$-x_4$]]></text>
        </g>
        <g latexdraw:type="text" id="id5017"
            font-family="Times New Roman" fill="black" font-size="18" latexdraw:x="339.34376">
            <text x="339.34376" y="204.9218775"><![CDATA[$x_3-x_5$]]></text>
        </g>
        <g latexdraw:type="line" id="id5020">
            <line x1="97.046875" x2="297.046875" y1="74.92187499999999"
                y2="114.92187799999999" stroke-width="2.0"
                stroke="black" latexdraw:rotationAngle="0.0" marker-end="url(#arrow2-5020)"/>
        </g>
        <g latexdraw:type="line" id="id5021">
            <line x1="97.046875" x2="297.046875" y1="114.92187799999999"
                y2="114.92187799999999" stroke-width="2.0"
                stroke="black" latexdraw:rotationAngle="0.0" marker-end="url(#arrow2-5021)"/>
        </g>
        <g latexdraw:type="line" id="id5022">
            <line x1="97.046875" x2="297.046875" y1="194.921875"
                y2="154.9218775" stroke-width="2.0" stroke="black"
                latexdraw:rotationAngle="0.0" marker-end="url(#arrow2-5022)"/>
        </g>
        <g latexdraw:type="line" id="id5023">
            <line x1="97.046875" x2="297.046875" y1="234.92188"
                y2="194.921875" stroke-width="2.0" stroke="black"
                latexdraw:rotationAngle="0.0" marker-end="url(#arrow2-5023)"/>
        </g>
        <g latexdraw:type="line" id="id5024">
            <line x1="97.046875" x2="297.046875" y1="274.921885"
                y2="74.92187499999999" stroke-width="2.0" stroke="black"
                latexdraw:rotationAngle="0.0" marker-end="url(#arrow2-5024)"/>
        </g>
        <g latexdraw:type="line" id="id5025">
            <line x1="97.046875" x2="297.046875" y1="154.9218775"
                y2="194.921875" stroke-width="2.0" stroke="black"
                latexdraw:rotationAngle="0.0" marker-end="url(#arrow2-5025)"/>
        </g>
        <g latexdraw:type="line" id="id5026">
            <line x1="317.046875" x2="437.04687499999994" y1="94.921875"
                y2="94.921875" stroke-width="2.0" stroke="black" latexdraw:rotationAngle="0.0"/>
        </g>
        <g latexdraw:type="line" id="id5027">
            <line x1="317.046875" x2="437.04687499999994"
                y1="134.921878" y2="134.921878" stroke-width="2.0"
                stroke="black" latexdraw:rotationAngle="0.0"/>
        </g>
        <g latexdraw:type="line" id="id5028">
            <line x1="437.04687499999994" x2="317.046875"
                y1="174.9218775" y2="174.9218775" stroke-width="2.0"
                stroke="black" latexdraw:rotationAngle="0.0"/>
        </g>
        <g latexdraw:type="line" id="id5029">
            <line x1="47.046875" x2="97.046875" y1="94.921875"
                y2="94.921875" stroke-width="2.0" stroke="black" latexdraw:rotationAngle="0.0"/>
        </g>
        <g latexdraw:type="line" id="id5030">
            <line x1="47.046875" x2="97.046875" y1="134.921878"
                y2="134.921878" stroke-width="2.0" stroke="black" latexdraw:rotationAngle="0.0"/>
        </g>
        <g latexdraw:type="line" id="id5031">
            <line x1="47.046875" x2="97.046875" y1="174.9218775"
                y2="174.9218775" stroke-width="2.0" stroke="black" latexdraw:rotationAngle="0.0"/>
        </g>
        <g latexdraw:type="line" id="id5032">
            <line x1="97.046875" x2="47.046875" y1="214.921875"
                y2="214.921875" stroke-width="2.0" stroke="black" latexdraw:rotationAngle="0.0"/>
        </g>
        <g latexdraw:type="line" id="id5033">
            <line x1="47.046875" x2="97.046875" y1="254.92188"
                y2="254.92188" stroke-width="2.0" stroke="black" latexdraw:rotationAngle="0.0"/>
        </g>
        <g latexdraw:type="text" id="id5034"
            font-family="Times New Roman" fill="black" font-size="18" latexdraw:x="36.1171875">
            <text x="36.1171875" y="34.921875"><![CDATA[$\bm{x}$]]></text>
        </g>
        <g latexdraw:type="text" id="id5036"
            font-family="Times New Roman" fill="black" font-size="18" latexdraw:x="356.117175">
            <text x="356.117175" y="34.921875"><![CDATA[$CS(x)$]]></text>
        </g>
        <g latexdraw:type="text" id="id5038"
            font-family="Times New Roman" fill="black" font-size="18" latexdraw:x="446.11722499999996">
            <text x="446.11722499999996" y="84.92187999999999"><![CDATA[$h(5)=0, s(5)=1$]]></text>
        </g>
        <g latexdraw:type="text" id="id5040"
            font-family="Times New Roman" fill="black" font-size="18" latexdraw:x="446.0">
            <text x="446.0" y="190.9218775"><![CDATA[$h(2)=3, s(2)=1$]]></text>
        </g>
        <g latexdraw:type="text" id="id5043"
            font-family="Times New Roman" fill="black" font-size="18" latexdraw:x="22.5">
            <text x="22.5" y="84.92187999999999"><![CDATA[$0$]]></text>
        </g>
        <g latexdraw:type="text" id="id5045"
            font-family="Times New Roman" fill="black" font-size="18" latexdraw:x="21.046875">
            <text x="21.046875" y="125.14062849999999"><![CDATA[$1$]]></text>
        </g>
        <g latexdraw:type="text" id="id5047"
            font-family="Times New Roman" fill="black" font-size="18" latexdraw:x="22.765625">
            <text x="22.765625" y="165.1406275"><![CDATA[$2$]]></text>
        </g>
        <g latexdraw:type="text" id="id5049"
            font-family="Times New Roman" fill="black" font-size="18" latexdraw:x="22.421875">
            <text x="22.421875" y="204.9218775"><![CDATA[$3$]]></text>
        </g>
        <g latexdraw:type="text" id="id5051"
            font-family="Times New Roman" fill="black" font-size="18" latexdraw:x="22.875">
            <text x="22.875" y="245.14063"><![CDATA[$4$]]></text>
        </g>
        <g latexdraw:type="text" id="id5053"
            font-family="Times New Roman" fill="black" font-size="18" latexdraw:x="22.296875">
            <text x="22.296875" y="284.921875"><![CDATA[$5$]]></text>
        </g>
        <g latexdraw:type="text" id="id5055"
            font-family="Times New Roman" fill="black" font-size="18" latexdraw:x="292.5">
            <text x="292.5" y="84.92187999999999"><![CDATA[$0$]]></text>
        </g>
        <g latexdraw:type="text" id="id5057"
            font-family="Times New Roman" fill="black" font-size="18" latexdraw:x="292.031245">
            <text x="292.031245" y="204.9218775"><![CDATA[$3$]]></text>
        </g>
        <g latexdraw:type="text" id="id5059"
            font-family="Times New Roman" fill="black" font-size="18" latexdraw:x="290.992195">
            <text x="290.992195" y="124.921875"><![CDATA[$1$]]></text>
        </g>
        <g latexdraw:type="text" id="id5061"
            font-family="Times New Roman" fill="black" font-size="18" latexdraw:x="292.578125">
            <text x="292.578125" y="164.9218775"><![CDATA[$2$]]></text>
        </g>
        <g latexdraw:type="text" id="id5063"
            font-family="Times New Roman" fill="black" font-size="18"
            latexdraw:x="491.82028700000006" transform="rotate(90.0) translate(-367.6328095000001 -640.5077644999999)">
            <text x="491.82028700000006" y="137.1640399999999"><![CDATA[. . .]]></text>
        </g>
        <g latexdraw:type="text" id="id5065"
            font-family="Times New Roman" fill="black" font-size="18" latexdraw:x="446.0">
            <text x="446.0" y="210.0"><![CDATA[$h(4)=3, s(4)=-1$]]></text>
        </g>
        <g latexdraw:type="text" id="id5068"
            font-family="Times New Roman" fill="black" font-size="18" latexdraw:x="296.0">
            <text x="296.0" y="49.0"><![CDATA[$j$]]></text>
        </g>
        <g latexdraw:type="text" id="id5071"
            font-family="Times New Roman" fill="black" font-size="18" latexdraw:x="27.0">
            <text x="27.0" y="50.0"><![CDATA[$i$]]></text>
        </g>
    </g>
    <metadata>
        <latexdraw:metadata>
            <latexdraw:displayBorders>false</latexdraw:displayBorders>
            <latexdraw:autoAdjust>true</latexdraw:autoAdjust>
            <latexdraw:ppc>50</latexdraw:ppc>
            <latexdraw:zoom>1.0</latexdraw:zoom>
            <latexdraw:unit>cm</latexdraw:unit>
            <latexdraw:classicGrid>false</latexdraw:classicGrid>
            <latexdraw:gridGap>10</latexdraw:gridGap>
            <latexdraw:code>0</latexdraw:code>
            <latexdraw:displayGrid>true</latexdraw:displayGrid>
            <latexdraw:magneticGrid>false</latexdraw:magneticGrid>
            <latexdraw:autoUpdate>true</latexdraw:autoUpdate>
            <latexdraw:version>2.0.8</latexdraw:version>
            <latexdraw:size>
                <latexdraw:width>1617</latexdraw:width>
                <latexdraw:height>1055</latexdraw:height>
            </latexdraw:size>
            <latexdraw:position>
                <latexdraw:x>64</latexdraw:x>
                <latexdraw:y>0</latexdraw:y>
            </latexdraw:position>
            <latexdraw:dividerPosition>0.5170068027210885</latexdraw:dividerPosition>
            <latexdraw:displayCodePanel>true</latexdraw:displayCodePanel>
            <latexdraw:displayXScale>true</latexdraw:displayXScale>
            <latexdraw:displayYScale>true</latexdraw:displayYScale>
            <latexdraw:delimitorOpacity>208</latexdraw:delimitorOpacity>
        </latexdraw:metadata>
    </metadata>
</svg>
